Chapter 20 Aggregating & Segmenting Data | R for HR: An Introduction to Human Resource Analytics Using R BOOK UNDER CONSTRUCTION
…
# Print the names of the variables in the data frame (tibble) objects
names(EmpSurvData)

##  [1] "EmployeeID"  "Unit"        "Supervisor"  "JobSat1"     "JobSat2"     "JobSat3"     "TurnInt1"    "TurnInt2"   
##  [9] "TurnInt3"    "Engage1"     "Engage2"     "Engage3"     "Engage4"     "Engage5"     "ExpIncivil1" "ExpIncivil2"
## [17] "ExpIncivil3" "ExpIncivil4" "ExpIncivil5"

# Print data frame (tibble) objects
print(EmpSurvData)

## # A tibble: 156 x 19
##    EmployeeID Unit     Supervisor JobSat1 JobSat2 JobSat3 TurnInt1 TurnInt2 TurnInt3 Engage1 Engage2 Engage3 Engage4 Engage5
##    <chr>      <chr>    <chr>        <dbl>   <dbl>   <dbl>    <dbl>    <dbl>    <dbl>   <dbl>   <dbl>   <dbl>   <dbl>   <dbl>
##  1 EID294     Marketi~ EID373           3       3       3        3        3        3       2       1       2       2       3
##  2 EID295     Marketi~ EID373           2       3       2        3        4        2       2       1       3       3       3
##  3 EID296     Marketi~ EID373           2       2       3        3        3        3       1       1       2       1       2
##  4 EID301     Marketi~ EID367           2       2       3        4        4        4       3       2       3       2       2
##  5 EID306     Marketi~ EID367           2       2       2        4        4        4       3       2       3       4       3
##  6 EID213     HumanRe~ EID370           4       3       4        3        3        3       3       2       4       3       3
##  7 EID217     HumanRe~ EID370           3       3       2        3        2        2       3       2       3       3       4
##  8 EID254     Manufac~ EID371           4       4       4        2        2        2       3       2       3       3       2
##  9 EID260     Manufac~ EID371           3       4       4        2        2        2       3       2       2       1       2
## 10 EID315     Researc~ EID372           3       2       3        2        2        2       2       2       3       4       2
## # ... with 146 more rows, and 5 more variables: ExpIncivil1 <dbl>, ExpIncivil2 <dbl>, ExpIncivil3 <dbl>, ExpIncivil4 <dbl>,
## #   ExpIncivil5 <dbl>
…
