Chapter 21 Descriptive Statistics | R for HR: An Introduction to Human Resource Analytics Using R BOOK UNDER CONSTRUCTION
…
# Print the names of the variables in the data frame (tibble) object
names(demo)

## [1] "EmpID"       "Facility"    "Education"   "Performance" "Age"

# Print number of rows in data frame (tibble) object
nrow(demo)

## [1] 30

# Print data frame (tibble) object
print(demo)

## # A tibble: 30 x 5
##    EmpID Facility  Education           Performance   Age
##    <chr> <chr>     <chr>                     <dbl> <dbl>
##  1 EE123 Beaverton College Degree              3.8    25
##  2 EE124 Beaverton Some College                9      30
##  3 EE125 Portland  High School Diploma         8.3    32
##  4 EE126 Beaverton Some College                9.8    28
##  5 EE127 Beaverton Some College                5.7    30
##  6 EE128 Beaverton College Degree              8.2    30
##  7 EE129 Beaverton College Degree              7.3    28
##  8 EE130 Beaverton College Degree              7.7    28
##  9 EE131 Portland  Some College                6.3    28
## 10 EE132 Hillsboro Some College                8.4    27
## # ... with 20 more rows
…
