Chapter 29 Evaluating a Pre-Test/Post-Test without Control Group Design Using Paired-Samples t-test | R for HR: An Introduction to Human Resource Analytics Using R BOOK UNDER CONSTRUCTION
…
As the fourth argument, type the values_to= argument followed by the name of a new variable containing the test scores that were originally nested within the PreTest and PostTest variable names from the original td data frame object; make sure the name of the new variable is within quotation marks (" "). Here, I name this new variable "Score".

# Manipulate data from wide to long format (i.e., stack)
td_long <- pivot_longer(data=td,
             cols=c(PreTest,PostTest), 
             names_to="Test", 
             values_to="Score")

Lets take a peek at our new td_long data frame object by using the Print function.

# Print new data frame object to Console
print(td_long)

## # A tibble: 50 x 3
##    EmpID Test     Score
##    <dbl> <chr>    <dbl>
##  1    26 PreTest     43
##  2    26 PostTest    66
##  3    27 PreTest     58
##  4    27 PostTest    74
##  5    28 PreTest     52
##  6    28 PostTest    62
##  7    29 PreTest     47
##  8    29 PostTest    84
##  9    30 PreTest     43
## 10    30 PostTest    78
## # ... with 40 more rows
…
